{
  "page": 1,
  "total_results": 8722,
  "total_pages": 437,
  "results": [
    {
      "vote_count": 349,
      "id": 301528,
      "video": false,
      "vote_average": 7.5,
      "title": "Toy Story 4",
      "popularity": 334.112,
      "poster_path": "/w9kR8qbmQ01HwnvK4alvnQ2ca0L.jpg",
      "original_language": "en",
      "original_title": "Toy Story 4",
      "genre_ids": [
        12,
        16,
        35,
        10751
      ],
      "backdrop_path": "/m67smI1IIMmYzCl9axvKNULVKLr.jpg",
      "adult": false,
      "overview": "Woody has always been confident about his place in the world and that his priority is taking care of his kid, whether that's Andy or Bonnie. But when Bonnie adds a reluctant new toy called \"Forky\" to her room, a road trip adventure alongside old and new friends will show Woody how big the world can be for a toy.",
      "release_date": "2019-06-19"
    },
    {
      "vote_count": 972,
      "id": 320288,
      "video": false,
      "vote_average": 6.4,
      "title": "Dark Phoenix",
      "popularity": 208.813,
      "poster_path": "/kZv92eTc0Gg3mKxqjjDAM73z9cy.jpg",
      "original_language": "en",
      "original_title": "Dark Phoenix",
      "genre_ids": [
        878,
        28
      ],
      "backdrop_path": "/phxiKFDvPeQj4AbkvJLmuZEieDU.jpg",
      "adult": false,
      "overview": "The X-Men face their most formidable and powerful foe when one of their own, Jean Grey, starts to spiral out of control. During a rescue mission in outer space, Jean is nearly killed when she's hit by a mysterious cosmic force. Once she returns home, this force not only makes her infinitely more powerful, but far more unstable. The X-Men must now band together to save her soul and battle aliens that want to use Grey's new abilities to rule the galaxy.",
      "release_date": "2019-06-05"
    },
    {
      "vote_count": 301,
      "id": 479455,
      "video": false,
      "vote_average": 6,
      "title": "Men in Black: International",
      "popularity": 156.96,
      "poster_path": "/dPrUPFcgLfNbmDL8V69vcrTyEfb.jpg",
      "original_language": "en",
      "original_title": "Men in Black: International",
      "genre_ids": [
        28,
        35,
        878,
        12
      ],
      "backdrop_path": "/2FYzxgLNuNVwncilzUeCGbOQzP7.jpg",
      "adult": false,
      "overview": "The Men in Black have always protected the Earth from the scum of the universe. In this new adventure, they tackle their biggest, most global threat to date: a mole in the Men in Black organization.",
      "release_date": "2019-06-12"
    },
    {
      "vote_count": 5938,
      "id": 299537,
      "video": false,
      "vote_average": 7,
      "title": "Captain Marvel",
      "popularity": 154.251,
      "poster_path": "/AtsgWhDnHTq68L0lLsUrCnM7TjG.jpg",
      "original_language": "en",
      "original_title": "Captain Marvel",
      "genre_ids": [
        28,
        12,
        878
      ],
      "backdrop_path": "/w2PMyoyLU22YvrGK3smVM9fW1jj.jpg",
      "adult": false,
      "overview": "The story follows Carol Danvers as she becomes one of the universe’s most powerful heroes when Earth is caught in the middle of a galactic war between two alien races. Set in the 1990s, Captain Marvel is an all-new adventure from a previously unseen period in the history of the Marvel Cinematic Universe.",
      "release_date": "2019-03-06"
    },
    {
      "vote_count": 1859,
      "id": 420817,
      "video": false,
      "vote_average": 7.2,
      "title": "Aladdin",
      "popularity": 136.076,
      "poster_path": "/3iYQTLGoy7QnjcUYRJy4YrAgGvp.jpg",
      "original_language": "en",
      "original_title": "Aladdin",
      "genre_ids": [
        12,
        14,
        10749,
        35,
        10751
      ],
      "backdrop_path": "/v4yVTbbl8dE1UP2dWu5CLyaXOku.jpg",
      "adult": false,
      "overview": "A kindhearted street urchin named Aladdin embarks on a magical adventure after finding a lamp that releases a wisecracking genie while a power-hungry Grand Vizier vies for the same lamp that has the power to make their deepest wishes come true.",
      "release_date": "2019-05-22"
    },
    {
      "vote_count": 70,
      "id": 533642,
      "video": false,
      "vote_average": 5.8,
      "title": "Child's Play",
      "popularity": 124.604,
      "poster_path": "/rpS7ROczWulqfaXG2klYapULXKm.jpg",
      "original_language": "en",
      "original_title": "Child's Play",
      "genre_ids": [
        27
      ],
      "backdrop_path": "/vHse4QK31Vc3X7BKKU5GOQhYxv6.jpg",
      "adult": false,
      "overview": "Karen, a single mother, gifts her son Andy a Buddi doll for his birthday, unaware of its more sinister nature. A contemporary re-imagining of the 1988 horror classic.",
      "release_date": "2019-06-19"
    },
    {
      "vote_count": 1247,
      "id": 458156,
      "video": false,
      "vote_average": 7.1,
      "title": "John Wick: Chapter 3 – Parabellum",
      "popularity": 123.058,
      "poster_path": "/ziEuG1essDuWuC5lpWUaw1uXY2O.jpg",
      "original_language": "en",
      "original_title": "John Wick: Chapter 3 – Parabellum",
      "genre_ids": [
        80,
        28,
        53
      ],
      "backdrop_path": "/vVpEOvdxVBP2aV166j5Xlvb5Cdc.jpg",
      "adult": false,
      "overview": "Super-assassin John Wick returns with a $14 million price tag on his head and an army of bounty-hunting killers on his trail. After killing a member of the shadowy international assassin’s guild, the High Table, John Wick is excommunicado, but the world’s most ruthless hit men and women await his every turn.",
      "release_date": "2019-05-15"
    },
    {
      "vote_count": 27,
      "id": 532321,
      "video": false,
      "vote_average": 5.4,
      "title": "Re: Zero kara Hajimeru Isekai Seikatsu - Memory Snow",
      "popularity": 121.879,
      "poster_path": "/xqR4ABkFTFYe8NDJi3knwWX7zfn.jpg",
      "original_language": "ja",
      "original_title": "Re:ゼロから始める異世界生活 Memory Snow",
      "genre_ids": [
        16,
        12
      ],
      "backdrop_path": "/8sNz2DxYiYqGkxk66U8BqvuZZjE.jpg",
      "adult": false,
      "overview": "Subaru and friends finally get a moment of peace, and Subaru goes on a certain secret mission that he must not let anyone find out about! However, even though Subaru is wearing a disguise, Petra and other children of the village immediately figure out who he is. Now that his mission was exposed within five seconds of it starting, what will happen with Subaru's \"date course\" with Emilia?",
      "release_date": "2018-10-06"
    },
    {
      "vote_count": 18,
      "id": 429617,
      "video": false,
      "vote_average": 5.9,
      "title": "Spider-Man: Far from Home",
      "popularity": 107.898,
      "poster_path": "/dzg8lHS78l5Xxpd2EM5H541Qn2s.jpg",
      "original_language": "en",
      "original_title": "Spider-Man: Far from Home",
      "genre_ids": [
        28,
        12,
        878
      ],
      "backdrop_path": "/dihW2yTsvQlust7mSuAqJDtqW7k.jpg",
      "adult": false,
      "overview": "Peter Parker and his friends go on a summer trip to Europe. However, they will hardly be able to rest - Peter will have to agree to help Nick Fury uncover the mystery of creatures that cause natural disasters and destruction throughout the continent.",
      "release_date": "2019-06-28"
    },
    {
      "vote_count": 20,
      "id": 480042,
      "video": false,
      "vote_average": 5.5,
      "title": "Escape Plan: The Extractors",
      "popularity": 105.006,
      "poster_path": "/mgHu3OcwEFAm3GV9p2AoCoCEJPP.jpg",
      "original_language": "en",
      "original_title": "Escape Plan: The Extractors",
      "genre_ids": [
        28,
        53
      ],
      "backdrop_path": "/ygWKYTu7OnZKF9H5NsgjL9iURGV.jpg",
      "adult": false,
      "overview": "After security expert Ray Breslin is hired to rescue the kidnapped daughter of a Hong Kong tech mogul from a formidable Latvian prison, Breslin's girlfriend is also captured. Now he and his team must pull off a deadly rescue mission to confront their sadistic foe and save the hostages before time runs out.",
      "release_date": "2019-06-20"
    },
    {
      "vote_count": 7197,
      "id": 299534,
      "video": false,
      "vote_average": 8.4,
      "title": "Avengers: Endgame",
      "popularity": 99.663,
      "poster_path": "/or06FN3Dka5tukK1e9sl16pB3iy.jpg",
      "original_language": "en",
      "original_title": "Avengers: Endgame",
      "genre_ids": [
        12,
        878,
        28
      ],
      "backdrop_path": "/7RyHsO4yDXtBv1zUU3mTpHeQ0d5.jpg",
      "adult": false,
      "overview": "After the devastating events of Avengers: Infinity War, the universe is in ruins due to the efforts of the Mad Titan, Thanos. With the help of remaining allies, the Avengers must assemble once more in order to undo Thanos' actions and restore order to the universe once and for all, no matter what consequences may be in store.",
      "release_date": "2019-04-24"
    },
    {
      "vote_count": 4,
      "id": 521029,
      "video": false,
      "vote_average": 5.8,
      "title": "Annabelle Comes Home",
      "popularity": 90.044,
      "poster_path": "/jsbt03UnPPt14AYRMcGaoqtwNxQ.jpg",
      "original_language": "en",
      "original_title": "Annabelle Comes Home",
      "genre_ids": [
        27
      ],
      "backdrop_path": "/4DHHymlttV0YskaxoWtuIDNDhPl.jpg",
      "adult": false,
      "overview": "Determined to keep Annabelle from wreaking more havoc, demonologists Ed and Lorraine Warren bring the possessed doll to the locked artifacts room in their home, placing her “safely” behind sacred glass and enlisting a priest’s holy blessing. But an unholy night of horror awaits as Annabelle awakens the evil spirits in the room, who all set their sights on a new target—the Warrens' ten-year-old daughter, Judy, and her friends.",
      "release_date": "2019-06-26"
    },
    {
      "vote_count": 1350,
      "id": 329996,
      "video": false,
      "vote_average": 6.5,
      "title": "Dumbo",
      "popularity": 88.21,
      "poster_path": "/279PwJAcelI4VuBtdzrZASqDPQr.jpg",
      "original_language": "en",
      "original_title": "Dumbo",
      "genre_ids": [
        12,
        10751,
        14
      ],
      "backdrop_path": "/5tFt6iuGnKapHl5tw0X0cKcnuVo.jpg",
      "adult": false,
      "overview": "A young elephant, whose oversized ears enable him to fly, helps save a struggling circus, but when the circus plans a new venture, Dumbo and his friends discover dark secrets beneath its shiny veneer.",
      "release_date": "2019-03-27"
    },
    {
      "vote_count": 2124,
      "id": 166428,
      "video": false,
      "vote_average": 7.6,
      "title": "How to Train Your Dragon: The Hidden World",
      "popularity": 86.505,
      "poster_path": "/xvx4Yhf0DVH8G4LzNISpMfFBDy2.jpg",
      "original_language": "en",
      "original_title": "How to Train Your Dragon: The Hidden World",
      "genre_ids": [
        16,
        10751,
        12
      ],
      "backdrop_path": "/lFwykSz3Ykj1Q3JXJURnGUTNf1o.jpg",
      "adult": false,
      "overview": "As Hiccup fulfills his dream of creating a peaceful dragon utopia, Toothless’ discovery of an untamed, elusive mate draws the Night Fury away. When danger mounts at home and Hiccup’s reign as village chief is tested, both dragon and rider must make impossible decisions to save their kind.",
      "release_date": "2019-01-03"
    },
    {
      "vote_count": 688,
      "id": 514999,
      "video": false,
      "vote_average": 6.5,
      "title": "Murder Mystery",
      "popularity": 80.347,
      "poster_path": "/bSMSO9xupd4R4vwTPqigHn2quLN.jpg",
      "original_language": "en",
      "original_title": "Murder Mystery",
      "genre_ids": [
        35,
        80,
        9648,
        28
      ],
      "backdrop_path": "/qeFO3u2IqbAeIT1Xgo6POqYbCaQ.jpg",
      "adult": false,
      "overview": "After attending a gathering on a billionaire's yacht during a European vacation, a New York cop and his wife become prime suspects when he's murdered.",
      "release_date": "2019-06-14"
    },
    {
      "vote_count": 16,
      "id": 566555,
      "video": false,
      "vote_average": 4.8,
      "title": "Detective Conan: The Fist of Blue Sapphire",
      "popularity": 80.062,
      "poster_path": "/86Y6qM8zTn3PFVfCm9J98Ph7JEB.jpg",
      "original_language": "ja",
      "original_title": "名探偵コナン 紺青の拳（フィスト）",
      "genre_ids": [
        16,
        28,
        18,
        9648,
        35
      ],
      "backdrop_path": "/wf6VDSi4aFCZfuD8sX8JAKLfJ5m.jpg",
      "adult": false,
      "overview": "23rd movie in the \"Detective Conan\" franchise.",
      "release_date": "2019-04-12"
    },
    {
      "vote_count": 670,
      "id": 373571,
      "video": false,
      "vote_average": 6.3,
      "title": "Godzilla: King of the Monsters",
      "popularity": 78.976,
      "poster_path": "/pU3bnutJU91u3b4IeRPQTOP8jhV.jpg",
      "original_language": "en",
      "original_title": "Godzilla: King of the Monsters",
      "genre_ids": [
        878,
        28,
        53
      ],
      "backdrop_path": "/uovH5k4BAEPqXqxgwVrTtqH169g.jpg",
      "adult": false,
      "overview": "The new story follows the heroic efforts of the crypto-zoological agency Monarch as its members face off against a battery of god-sized monsters, including the mighty Godzilla, who collides with Mothra, Rodan, and his ultimate nemesis, the three-headed King Ghidorah. When these ancient super-species—thought to be mere myths—rise again, they all vie for supremacy, leaving humanity’s very existence hanging in the balance.",
      "release_date": "2019-05-29"
    },
    {
      "vote_count": 2138,
      "id": 399579,
      "video": false,
      "vote_average": 6.7,
      "title": "Alita: Battle Angel",
      "popularity": 78.227,
      "poster_path": "/xRWht48C2V8XNfzvPehyClOvDni.jpg",
      "original_language": "en",
      "original_title": "Alita: Battle Angel",
      "genre_ids": [
        28,
        878,
        53,
        12
      ],
      "backdrop_path": "/aQXTw3wIWuFMy0beXRiZ1xVKtcf.jpg",
      "adult": false,
      "overview": "When Alita awakens with no memory of who she is in a future world she does not recognize, she is taken in by Ido, a compassionate doctor who realizes that somewhere in this abandoned cyborg shell is the heart and soul of a young woman with an extraordinary past.",
      "release_date": "2019-01-31"
    },
    {
      "vote_count": 252,
      "id": 531309,
      "video": false,
      "vote_average": 5.6,
      "title": "Brightburn",
      "popularity": 75.704,
      "poster_path": "/sJWwkYc9ajwnPRSkqj8Aue5JbKz.jpg",
      "original_language": "en",
      "original_title": "Brightburn",
      "genre_ids": [
        27,
        878,
        18,
        53
      ],
      "backdrop_path": "/j3w3lT3ABvJsVE3byNOMCYmnGMB.jpg",
      "adult": false,
      "overview": "What if a child from another world crash-landed on Earth, but instead of becoming a hero to mankind, he proved to be something far more sinister?",
      "release_date": "2019-05-09"
    },
    {
      "vote_count": 4191,
      "id": 324857,
      "video": false,
      "vote_average": 8.4,
      "title": "Spider-Man: Into the Spider-Verse",
      "popularity": 73.312,
      "poster_path": "/iiZZdoQBEYBv6id8su7ImL0oCbD.jpg",
      "original_language": "en",
      "original_title": "Spider-Man: Into the Spider-Verse",
      "genre_ids": [
        28,
        12,
        16,
        878,
        35
      ],
      "backdrop_path": "/uUiId6cG32JSRI6RyBQSvQtLjz2.jpg",
      "adult": false,
      "overview": "Miles Morales is juggling his life between being a high school student and being a spider-man. When Wilson \"Kingpin\" Fisk uses a super collider, others from across the Spider-Verse are transported to this dimension.",
      "release_date": "2018-12-06"
    }
  ]
}